{
  "host_ut_banks": {"bank_type": "UT"},
  "host_scifi_banks": {"bank_type": "FTCluster"},
  "velo_banks": {"bank_type": "VP"},
  "ut_banks": {"bank_type": "UT"},
  "ut_search_windows": {"min_momentum": "1500.0", "min_pt": "300.0"},
  "compass_ut": {"min_momentum_final": "2500.0", "min_pt_final": "425.0", "max_considered_before_found": "6"},
  "scifi_banks": {"bank_type": "FTCluster"},
  "muon_banks": {"bank_type": "Muon"},
  "odin_banks": {"bank_type": "ODIN"},
  "Hlt1TrackMVA": {"pre_scaler_hash_string": "track_mva_line_pre", "post_scaler_hash_string": "track_mva_line_post"},
  "Hlt1TwoTrackMVA": {"pre_scaler_hash_string": "two_track_mva_line_pre", "post_scaler_hash_string": "two_track_mva_line_post"},
  "Hlt1NoBeam": {"pre_scaler_hash_string": "no_beam_line_pre", "post_scaler_hash_string": "no_beam_line_post", "beam_crossing_type": "0"},
  "Hlt1BeamOne": {"pre_scaler_hash_string": "beam_one_line_pre", "post_scaler_hash_string": "beam_one_line_post", "beam_crossing_type": "1"},
  "Hlt1BeamTwo": {"pre_scaler_hash_string": "beam_two_line_pre", "post_scaler_hash_string": "beam_two_line_post", "beam_crossing_type": "2"},
  "Hlt1BothBeams": {"pre_scaler_hash_string": "both_beams_line_pre", "post_scaler_hash_string": "both_beams_line_post", "beam_crossing_type": "3"},
  "Hlt1VeloMicroBias": {"pre_scaler_hash_string": "velo_micro_bias_line_pre", "post_scaler_hash_string": "velo_micro_bias_line_post"},
  "Hlt1ODINLumi": {"pre_scaler_hash_string": "odin_lumi_line_pre", "post_scaler_hash_string": "odin_lumi_line_post"},
  "Hlt1ODINNoBias": {"pre_scaler_hash_string": "odin_no_bias_pre", "post_scaler_hash_string": "odin_no_bias_post"},
  "Hlt1SingleHighPtMuon": {"pre_scaler_hash_string": "single_high_pt_muon_line_pre", "post_scaler_hash_string": "single_high_pt_muon_line_post"},
  "Hlt1LowPtMuon": {"pre_scaler_hash_string": "low_pt_muon_line_pre", "post_scaler_hash_string": "low_pt_muon_line_post"},
  "Hlt1D2KK": {"pre_scaler_hash_string": "d2kk_line_pre", "post_scaler_hash_string": "d2kk_line_post"},
  "Hlt1D2KPi": {"pre_scaler_hash_string": "d2kpi_line_pre", "post_scaler_hash_string": "d2kpi_line_post"},
  "Hlt1D2PiPi": {"pre_scaler_hash_string": "d2pipi_line_pre", "post_scaler_hash_string": "d2pipi_line_post"},
  "Hlt1DiMuonHighMass": {"pre_scaler_hash_string": "di_muon_high_mass_line_pre", "post_scaler_hash_string": "di_muon_high_mass_line_post"},
  "Hlt1DiMuonLowMass": {"pre_scaler_hash_string": "di_muon_low_mass_line_pre", "post_scaler_hash_string": "di_muon_low_mass_line_post", "minHighMassTrackPt": "500", "minHighMassTrackP": "3000", "minMass": "0", "maxDoca": "0.2", "maxVertexChi2": "25", "minIPChi2": "4"},
  "Hlt1DiMuonSoft": {"pre_scaler_hash_string": "di_muon_soft_line_pre", "post_scaler_hash_string": "di_muon_soft_line_post"},
  "Hlt1LowPtDiMuon": {"pre_scaler_hash_string": "low_pt_di_muon_line_pre", "post_scaler_hash_string": "low_pt_di_muon_line_post"},
  "Hlt1TrackMuonMVA": {"pre_scaler_hash_string": "track_muon_mva_line_pre", "post_scaler_hash_string": "track_muon_mva_line_post"},
  "Hlt1GECPassthrough": {"pre_scaler_hash_string": "gec_passthrough_line_pre", "post_scaler_hash_string": "gec_passthrough_line_post"},
  "Hlt1Passthrough": {"pre_scaler_hash_string": "passthrough_line_pre", "post_scaler_hash_string": "passthrough_line_post"},
  "gather_selections": {"names_of_active_lines": "Hlt1TrackMVA,Hlt1TwoTrackMVA,Hlt1NoBeam,Hlt1BeamOne,Hlt1BeamTwo,Hlt1BothBeams,Hlt1VeloMicroBias,Hlt1ODINLumi,Hlt1ODINNoBias,Hlt1SingleHighPtMuon,Hlt1LowPtMuon,Hlt1D2KK,Hlt1D2KPi,Hlt1D2PiPi,Hlt1DiMuonHighMass,Hlt1DiMuonLowMass,Hlt1DiMuonSoft,Hlt1LowPtDiMuon,Hlt1TrackMuonMVA,Hlt1GECPassthrough,Hlt1Passthrough"},
  "configured_lines": []
}
