MC_info/tracks/6918133_590113.bin 93432
MC_info/tracks/6918133_590114.bin 126824
MC_info/tracks/6918133_590115.bin 89056
MC_info/tracks/6918133_590116.bin 81004
MC_info/tracks/6918133_590117.bin 14164
MC_info/tracks/6918133_590118.bin 91208
MC_info/tracks/6918133_590119.bin 41968
MC_info/tracks/6918133_590120.bin 35364
MC_info/tracks/6918133_590121.bin 140872
MC_info/tracks/6918133_590122.bin 90648
MC_info/tracks/6918133_590123.bin 181620
MC_info/tracks/6918133_590124.bin 101864
MC_info/tracks/6918133_590125.bin 3104
MC_info/tracks/6918133_590126.bin 112412
MC_info/tracks/6918133_590127.bin 121264
MC_info/tracks/6918133_590128.bin 154572
MC_info/tracks/6918133_590129.bin 137056
MC_info/tracks/6918133_590130.bin 200512
MC_info/tracks/6918133_590131.bin 138340
MC_info/tracks/6918133_590132.bin 145628
MC_info/tracks/6918133_590133.bin 65856
MC_info/tracks/6918133_590134.bin 130596
MC_info/tracks/6918133_590135.bin 204080
MC_info/tracks/6918133_590136.bin 160732
MC_info/tracks/6918133_590137.bin 82880
MC_info/tracks/6918133_590138.bin 146040
MC_info/tracks/6918133_590139.bin 99196
MC_info/tracks/6918133_590140.bin 158160
MC_info/tracks/6918133_590141.bin 166548
MC_info/tracks/6918133_590142.bin 88704
MC_info/tracks/6918133_590143.bin 167852
MC_info/tracks/6918133_590144.bin 199936
MC_info/tracks/6918133_590145.bin 256760
MC_info/tracks/6918133_590146.bin 91616
MC_info/tracks/6918133_590147.bin 9976
MC_info/tracks/6918133_590148.bin 149948
MC_info/tracks/6918133_590149.bin 72688
MC_info/tracks/6918133_590150.bin 140808
MC_info/tracks/6918133_590151.bin 140076
MC_info/tracks/6918133_590152.bin 75560
MC_info/tracks/6918133_590153.bin 53896
MC_info/tracks/6918133_590154.bin 16236
MC_info/tracks/6918133_590155.bin 316128
MC_info/tracks/6918133_590156.bin 237796
MC_info/tracks/6918133_590157.bin 20032
MC_info/tracks/6918133_590158.bin 109272
MC_info/tracks/6918133_590159.bin 120912
MC_info/tracks/6918133_590160.bin 50328
MC_info/tracks/6918133_590161.bin 99984
MC_info/tracks/6918133_590162.bin 147116